232832 350447 441
136915 666159 509
588751 941019 525
176390 600442 470
440891 453157 387
369114 958391 525
69484 511588 449
265382 551132 470
910451 643992 525
628762 351405 509
872324 426664 525
348029 9895 443
293226 209162 443
737044 655115 504
255624 133216 443
646461 672856 442
269028 552683 470
704867 223902 509
874381 98049 525
217194 405715 443
253752 603121 470
991372 276759 525
2629 274533 443
942483 310258 525
600058 910929 525
631928 624322 509
859319 80442 525
398641 733773 509
165370 883090 525
976606 433335 525
319171 95144 443
725956 905604 525
360196 555453 470
823664 237173 509
74011 794560 509
52892 72004 335
707467 819130 468
928320 198277 525
481377 176145 449
982009 250472 525
162023 339774 443
535566 480260 470
902215 121697 525
92933 798982 509
314465 821579 509
367445 927230 525
757849 820620 468
15067 681197 509
998300 821053 525
403428 160594 443
88959 683361 509
21962 843271 525
414482 747484 509
484736 899559 525
177528 670331 509
67130 947075 525
254604 270413 407
853158 180988 525
283551 534199 470
891088 662088 525
264983 449133 449
125554 458930 449
677135 91255 509
888180 444232 525
542789 601956 452
425788 59905 449
101976 724595 509
972819 353333 525
671146 961573 525
391709 971218 525
680205 347677 509
325723 880061 525
75041 311866 443
70079 766939 509
678358 274157 509
889341 333699 525
105707 868573 525
710405 473019 509
400638 579975 470
806648 673922 504
434020 948641 525
425234 635032 509
463657 629079 509
837760 940044 525
863004 903545 445
904933 436266 525
210510 320577 443
883267 461586 525
620984 725451 509
13231 564134 470
549931 188806 470
751436 983182 525
360928 131485 443
777700 835204 468
471577 741369 509
655951 475689 509
333206 880396 525
807772 4824 509
628160 249575 509
636123 184272 509
891951 346911 525
864307 915860 476
373947 55000 443
647340 835798 504
354910 378133 423
462734 692382 509
652772 543392 509
44645 558117 470
118861 766605 509
317254 979278 525
55495 668996 509
94221 936064 525
342680 682931 509
991088 960392 458
836553 554729 509
240386 37696 443
966278 649048 525
665290 923198 525
755177 351468 509
832879 194407 509
454269 924541 525
874908 750541 525
708153 942911 525
686606 892723 525
340949 542749 470
49857 274149 443
684562 975978 525
493835 115549 449
907174 632784 525
66882 237184 443
468629 965425 525
928552 42558 525
453093 971498 525
395041 173871 443
397988 956499 525
304103 606819 470
24545 42238 324
313814 835836 509
358469 898690 525
421980 178833 449
466741 924531 525
498706 800937 509
751655 977215 525
781426 235667 509
87624 705032 509
967631 647220 525
78827 867299 525
403997 169426 443
287284 53064 443
438806 142475 449
475872 664346 509
458916 20396 449
212587 763200 509
808743 242780 509
503094 833508 509
318842 784339 509
515344 290179 470
899823 89884 525
518013 606064 452
384184 735131 509
489930 265287 449
848432 851559 357
984247 801518 525
9271 30181 308
762896 96829 509
630780 947727 525
807876 398126 509
673908 47023 509
640668 325983 509
727222 672983 504
34459 258558 443
982459 791241 525
223455 440897 449
852959 591101 525
463884 76056 449
979477 14276 525
763462 737307 424
347577 378531 423
907076 916668 476
637846 908109 525
431655 361933 449
17298 418842 449
816706 996748 525
478825 289893 449
414519 236794 449
334247 678583 509
31499 77270 351
376574 674401 509
513346 579473 452
280499 216576 443
582980 102699 470
72538 502309 449
294487 189442 443
700979 7155 509
393985 626246 470
312817 59338 443
126776 252143 443
127294 734823 509
843742 380867 525
318750 956657 525
689172 144358 509
944522 899377 507
725255 232199 509
617745 815711 509
245367 348095 441
179935 163865 352
775893 462979 509
857694 239657 525
922629 361230 525
139492 624816 470
504559 676173 509
937333 140069 525
957219 965694 414
488494 549916 470
184746 613279 470
186147 630949 509
95873 234852 443
298432 277611 389
172813 329651 443
4593 593792 470
377527 520155 470
149987 934113 525
654788 469953 509
395342 539309 470
563760 377310 470
80418 175249 383
275031 146344 443
20057 397646 443
210892 43306 383
948441 29032 525
847356 216704 525
639878 602543 509
228492 633457 509
803611 773710 468
443542 534221 470
479563 715684 509
28392 656802 509
839399 485407 525
349738 648858 509
169373 57702 383
966295 320081 525
436848 624044 470
96604 772430 509
531892 950890 525
477954 976559 525
172492 408741 443
170049 195301 365
170150 163294 352
110375 873269 525
365910 127186 443
