1 10 20
100 200 125
201 210 89
900 1000 174
808956 952968 525
667482 735933 504
407536 513062 470
931774 939371 445
237979 914924 525
167622 936897 525
823162 844057 525
225092 983302 525
633126 773036 504
131409 670820 509
998945 999428 396
852512 910606 476
896903 915678 476
838816 983501 507
125462 982061 525
651569 857136 525
655799 764342 504
25247 491879 449
55514 505165 449
861108 937815 476
64368 891489 525
81455 375465 443
921272 966451 507
69753 577623 470
818865 852940 525
248344 399410 441
634458 800710 504
49703 790020 509
151834 199719 383
669259 939122 525
715403 905492 525
697582 741196 504
452137 550596 470
34388 980738 525
432205 808430 509
867585 875095 432
58838 897800 525
353225 842499 525
94883 129597 354
29839 266680 443
812860 964838 525
12704 728831 509
641285 841482 525
205354 505991 449
288699 409217 441
616139 656898 509
749998 782574 468
141444 794996 509
576372 915225 525
691672 734188 504
307189 851263 525
494385 610359 470
170748 997301 525
273424 622631 470
368998 501086 449
927181 960784 507
588233 634099 509
477583 987561 525
194452 528386 470
12012 970282 525
737254 835272 468
795678 812789 468
493857 675840 509
369180 622578 470
809499 866153 525
520539 980481 525
894974 960255 507
688443 805404 504
296582 349164 441
983220 995327 427
853776 916333 476
444508 560586 470
644229 716961 504
63292 279786 443
943979 951473 414
285726 333980 389
493323 937324 525
33811 806238 509
850941 925379 476
294153 996012 525
234374 580275 470
673203 782247 504
453595 802694 509
347891 535160 470
533074 824197 509
955714 988603 458
191589 942093 525
874910 991325 507
36194 750176 509
881286 923704 476
666218 935882 525
933537 937412 414
921675 936743 476
205935 820040 509
698781 787964 504
248993 446606 449
976390 988797 427
825863 928262 525
811850 896162 525
940020 961277 414
588757 887751 525
140118 365483 443
762765 836825 468
455046 946625 525
996237 996624 352
671642 904655 525
417269 570584 470
62140 439514 449
591557 718174 509
563885 684954 509
629507 737038 504
415919 698327 509
263838 283068 407
932650 981771 507
106065 261009 443
41275 861109 525
540427 587620 452
609233 620314 447
301678 439959 449
538009 832565 509
589413 618430 447
661441 778776 504
532378 532541 302
839883 851839 419
869431 978948 507
569980 761712 509
77209 679662 509
853863 917717 476
920174 970142 507
832962 917710 525
742673 899733 525
534943 872669 525
63800 68034 312
142981 456680 449
470418 694944 509
97567 419505 449
564606 649461 509
1733 579204 470
261480 524316 470
282557 290567 389
709332 712017 380
247718 437765 449
18376 71897 340
945 920423 525
461005 595694 470
332345 467128 449
45362 535269 470
134191 226069 386
368390 810235 509
413793 709530 509
181113 351999 443
17985 344630 443
331443 597347 470
562955 643828 509
847077 972301 507
115739 588962 470
120415 921247 525
208523 958730 525
341764 762643 509
479020 589670 470
722253 901326 525
698209 904646 525
685075 768853 504
21306 192697 383
579305 633650 509
483675 970851 525
533406 894062 525
379254 465801 449
165371 710028 509
814524 978303 525
177193 894245 525
518477 744567 509
857795 931286 476
527743 964439 525
773883 790945 437
517234 612470 452
365465 967579 525
788383 941040 525
696684 897939 525
175925 977205 525
733952 981496 525
279007 653284 509
925327 942268 507
292188 423523 449
955049 980625 458
582443 605035 434
545562 980801 525
734662 809068 468
44638 996987 525
658754 715375 504
920259 991061 507
567658 916320 525
797562 915107 525
282661 996106 525
516315 654518 509
512838 715393 509
465370 871418 525
458504 729282 509
553151 820780 509
918151 925528 445
863063 964978 507
487973 965274 525
801283 976016 525
142610 835170 509
781924 959904 525
386438 546645 470
640534 945734 525
960796 992433 458
539607 555455 452
794795 857344 525
569891 642513 509
306866 817671 509
870166 896486 445
300430 562859 470
635005 879583 525
764012 952988 525
330250 606121 470
822783 905119 525
670104 931351 525
747762 789025 468
902728 914469 476
468967 788461 509
931637 972657 507
37089 918765 525
368797 467336 449
388802 659469 509
225873 363312 443
761436 785686 468
73033 396836 443
317973 409066 441
61419 995809 525
44025 838434 525
441527 461854 444
517629 720456 509
593548 918584 525
279524 767451 509
468866 879467 525
723076 863111 525
163504 586796 470
551402 694083 509
828616 906149 525
240045 468891 449
652159 719680 504
226457 680356 509
925899 988878 507
226112 688207 509
372492 684903 509
300088 534051 470
111888 904112 525
791019 877579 525
18828 498563 449
287356 807853 509
689851 744135 504
226866 788645 509
540901 603563 452
34030 149441 375
115116 303306 443
766996 937438 525
905185 945398 507
365610 853008 525
81752 587167 470
741786 960945 525
374004 453653 449
880121 999443 507
947096 962176 414
292280 552689 470
109433 130078 349
11383 112502 354
499654 733523 509
207396 881917 525
441988 468689 444
180620 627824 509
559003 656066 509
329224 576931 470
212688 236070 443
685308 998270 525
332908 597395 470
409713 672181 509
494788 998095 525
508311 908727 525
554447 715471 509
781143 962084 525
14605 942218 525
932875 965925 507
447434 469514 444
339581 819402 509
565029 590250 434
512839 795670 509
359857 604426 470
869446 927103 476
649216 781249 504
332022 348210 441
31621 756005 509
255224 268007 407
392064 399379 405
161813 322508 443
